{
"type": "FeatureCollection",
"name": "terminal",
"crs": { "type": "name", "properties": { "name": "urn:ogc:def:crs:OGC:1.3:CRS84" } },
"features": [
{ "type": "Feature", "properties": { "fid": 1 }, "geometry": { "type": "Polygon", "coordinates": [ [ [ -9.357776944444444, 38.724589444444447 ], [ -9.358050204076251, 38.724523000153368 ], [ -9.357947566204613, 38.724234420322276 ], [ -9.357658333333333, 38.724299444444448 ], [ -9.357776944444444, 38.724589444444447 ] ] ] } }
]
}
