{
"type": "FeatureCollection",
"name": "twy",
"crs": { "type": "name", "properties": { "name": "urn:ogc:def:crs:OGC:1.3:CRS84" } },
"features": [
    { "type": "Feature", "properties": { "fid": 1 }, "geometry": { "type": "LineString", "coordinates": [ [ -9.354000435904936, 38.723254002475642 ], [ -9.35413497610611, 38.723644269243124 ] ] } },

    { "type": "Feature", "properties": { "fid": 23 }, "geometry": { "type": "LineString", "coordinates": [ ] } },

    { "type": "Feature", "properties": { "fid": 32 }, "geometry": { "type": "LineString", "coordinates": [ [ -9.354856111111111, 38.723519722222221 ], [ -9.354892222222222, 38.72352027777778 ], [ -9.354892222222222, 38.72352027777778 ], [ -9.354934166666666, 38.723518055555559 ], [ -9.354934166666666, 38.723518055555559 ], [ -9.354974166666667, 38.72351 ] ] } },

    { "type": "Feature", "properties": { "fid": 33 }, "geometry": { "type": "LineString", "coordinates": [ [ -9.354866388888889, 38.723556111111115 ], [ -9.35491361111111, 38.723529444444445 ], [ -9.35491361111111, 38.723529444444445 ], [ -9.354974722222222, 38.723509722222225 ], [ -9.354974722222222, 38.723509722222225 ], [ -9.355540277777777, 38.723382777777779 ], [ -9.355540277777777, 38.723382777777779 ], [ -9.356676111111112, 38.72313 ], [ -9.356676111111112, 38.72313 ], [ -9.357286944444445, 38.722992777777783 ], [ -9.357286944444445, 38.722992777777783 ], [ -9.357346666666666, 38.722968055555555 ], [ -9.357346666666666, 38.722968055555555 ], [ -9.357391944444444, 38.722926944444445 ], [ -9.357391944444444, 38.722926944444445 ], [ -9.357419722222222, 38.722866388888889 ], [ -9.357419722222222, 38.722866388888889 ], [ -9.357396388888889, 38.721206944444447 ] ] } },

    { "type": "Feature", "properties": { "fid": 34 }, "geometry": { "type": "LineString", "coordinates": [ [ -9.355458333333333, 38.723401388888888 ], [ -9.355514166666666, 38.723395555555555 ], [ -9.355514166666666, 38.723395555555555 ], [ -9.355569166666667, 38.723401111111116 ], [ -9.355569166666667, 38.723401111111116 ], [ -9.35561861111111, 38.723415833333334 ], [ -9.35561861111111, 38.723415833333334 ], [ -9.355656666666667, 38.7234375 ], [ -9.355656666666667, 38.7234375 ], [ -9.355709166666667, 38.723488611111115 ], [ -9.355709166666667, 38.723488611111115 ], [ -9.3557425, 38.72354444444445 ], [ -9.3557425, 38.72354444444445 ], [ -9.356310555555556, 38.725064722222221 ], [ -9.356310555555556, 38.725064722222221 ], [ -9.356326111111111, 38.725125833333337 ], [ -9.356326111111111, 38.725125833333337 ], [ -9.356331388888888, 38.725163055555555 ], [ -9.356331388888888, 38.725163055555555 ], [ -9.356317777777777, 38.725201944444443 ], [ -9.356317777777777, 38.725201944444443 ], [ -9.356282222222221, 38.725234722222226 ], [ -9.356282222222221, 38.725234722222226 ], [ -9.356231666666666, 38.725264166666669 ], [ -9.356231666666666, 38.725264166666669 ], [ -9.35619, 38.725280555555557 ], [ -9.35619, 38.725280555555557 ], [ -9.35606, 38.72531 ], [ -9.35606, 38.72531 ], [ -9.355645833333332, 38.725401111111111 ], [ -9.355645833333332, 38.725401111111111 ], [ -9.355597777777778, 38.725418888888889 ], [ -9.355597777777778, 38.725418888888889 ], [ -9.35556, 38.72544527777778 ] ] } },

    { "type": "Feature", "properties": { "fid": 35 }, "geometry": { "type": "LineString", "coordinates": [ [ -9.355893055555555, 38.723304444444445 ], [ -9.355849722222223, 38.723325555555554 ], [ -9.355849722222223, 38.723325555555554 ], [ -9.355795, 38.723360833333338 ], [ -9.355795, 38.723360833333338 ], [ -9.355765277777778, 38.723398888888887 ], [ -9.355765277777778, 38.723398888888887 ], [ -9.355743888888888, 38.7234525 ], [ -9.355743888888888, 38.7234525 ], [ -9.355742222222222, 38.723514722222227 ], [ -9.355742222222222, 38.723514722222227 ], [ -9.355749166666666, 38.723563611111111 ] ] } },

    { "type": "Feature", "properties": { "fid": 36 }, "geometry": { "type": "LineString", "coordinates": [ [ -9.356138611111112, 38.725293055555561 ], [ -9.356206666666667, 38.725278055555556 ], [ -9.356206666666667, 38.725278055555556 ], [ -9.356266666666667, 38.725275277777783 ], [ -9.356266666666667, 38.725275277777783 ], [ -9.35633111111111, 38.725286666666669 ], [ -9.35633111111111, 38.725286666666669 ], [ -9.356375555555555, 38.72531027777778 ], [ -9.356375555555555, 38.72531027777778 ], [ -9.356403055555555, 38.72535111111111 ], [ -9.356403055555555, 38.72535111111111 ], [ -9.356536666666667, 38.725723055555555 ], [ -9.356536666666667, 38.725723055555555 ], [ -9.356605, 38.725914166666669 ] ] } },

    { "type": "Feature", "properties": { "fid": 37 }, "geometry": { "type": "LineString", "coordinates": [ [ -9.356145833333333, 38.725291388888891 ], [ -9.356255277777777, 38.725270833333333 ], [ -9.356255277777777, 38.725270833333333 ], [ -9.356321944444444, 38.725266944444449 ], [ -9.356321944444444, 38.725266944444449 ], [ -9.356421666666666, 38.725273888888893 ], [ -9.356421666666666, 38.725273888888893 ], [ -9.356520277777777, 38.725298888888894 ], [ -9.356520277777777, 38.725298888888894 ], [ -9.356609166666667, 38.725325555555557 ], [ -9.356609166666667, 38.725325555555557 ], [ -9.356711944444443, 38.725338888888892 ], [ -9.356711944444443, 38.725338888888892 ], [ -9.356804444444444, 38.725339166666672 ], [ -9.356804444444444, 38.725339166666672 ], [ -9.356888333333332, 38.725330277777779 ], [ -9.356888333333332, 38.725330277777779 ], [ -9.357201388888889, 38.725256388888894 ], [ -9.357201388888889, 38.725256388888894 ], [ -9.3573375, 38.72520055555556 ], [ -9.3573375, 38.72520055555556 ], [ -9.357429722222221, 38.725153333333338 ], [ -9.357429722222221, 38.725153333333338 ], [ -9.357485277777778, 38.725136666666671 ], [ -9.357485277777778, 38.725136666666671 ], [ -9.357793333333333, 38.725069166666671 ] ] } },

    { "type": "Feature", "properties": { "fid": 38 }, "geometry": { "type": "LineString", "coordinates": [ [ -9.357199722222221, 38.7252575 ], [ -9.357234722222222, 38.725231388888893 ], [ -9.357234722222222, 38.725231388888893 ], [ -9.357265833333333, 38.725193888888889 ], [ -9.357265833333333, 38.725193888888889 ], [ -9.357275555555555, 38.72515527777778 ], [ -9.357275555555555, 38.72515527777778 ], [ -9.357273888888889, 38.725108055555559 ], [ -9.357273888888889, 38.725108055555559 ], [ -9.357119722222222, 38.724678611111116 ], [ -9.357119722222222, 38.724678611111116 ], [ -9.357111111111111, 38.7246425 ], [ -9.357111111111111, 38.7246425 ], [ -9.357118888888888, 38.724602777777783 ], [ -9.357118888888888, 38.724602777777783 ], [ -9.357144166666666, 38.724563888888888 ], [ -9.357144166666666, 38.724563888888888 ], [ -9.357176944444443, 38.724536944444445 ], [ -9.357176944444443, 38.724536944444445 ], [ -9.357216111111111, 38.724518333333336 ], [ -9.357216111111111, 38.724518333333336 ], [ -9.357563611111111, 38.724441111111112 ] ] } },

    { "type": "Feature", "properties": { "fid": 39 }, "geometry": { "type": "LineString", "coordinates": [ [ -9.357233611111111, 38.72499805555556 ], [ -9.357227222222221, 38.724956944444443 ], [ -9.357227222222221, 38.724956944444443 ], [ -9.357234166666666, 38.724919166666666 ], [ -9.357234166666666, 38.724919166666666 ], [ -9.357252777777777, 38.724886388888891 ], [ -9.357252777777777, 38.724886388888891 ], [ -9.3572825, 38.724857222222226 ], [ -9.3572825, 38.724857222222226 ], [ -9.357323611111111, 38.724835 ], [ -9.357323611111111, 38.724835 ], [ -9.357684166666667, 38.724755277777781 ] ] } },

    { "type": "Feature", "properties": { "fid": 40 }, "geometry": { "type": "LineString", "coordinates": [ [ -9.356318055555555, 38.725201666666671 ], [ -9.356344166666666, 38.725161111111113 ], [ -9.356344166666666, 38.725161111111113 ], [ -9.356361111111111, 38.725120277777776 ], [ -9.356361111111111, 38.725120277777776 ], [ -9.356369722222222, 38.725083333333338 ], [ -9.356369722222222, 38.725083333333338 ], [ -9.35638611111111, 38.725058333333337 ], [ -9.35638611111111, 38.725058333333337 ], [ -9.356417222222221, 38.7250325 ], [ -9.356417222222221, 38.7250325 ], [ -9.356455, 38.725016944444448 ], [ -9.356455, 38.725016944444448 ], [ -9.356919444444443, 38.724912777777782 ] ] } },

    { "type": "Feature", "properties": { "fid": 41 }, "geometry": { "type": "LineString", "coordinates": [ [ -9.356800833333333, 38.724626944444445 ], [ -9.356358333333333, 38.724724722222227 ], [ -9.356358333333333, 38.724724722222227 ], [ -9.356316944444444, 38.724735555555554 ], [ -9.356316944444444, 38.724735555555554 ], [ -9.3562775, 38.724760555555555 ], [ -9.3562775, 38.724760555555555 ], [ -9.356248888888889, 38.724802777777782 ], [ -9.356248888888889, 38.724802777777782 ], [ -9.35624, 38.724846111111113 ], [ -9.35624, 38.724846111111113 ], [ -9.356244722222222, 38.724891111111113 ] ] } },

    { "type": "Feature", "properties": { "fid": 42 }, "geometry": { "type": "LineString", "coordinates": [ [ -9.355648333333333, 38.725400555555559 ], [ -9.355588055555556, 38.725404722222223 ], [ -9.355588055555556, 38.725404722222223 ], [ -9.3555425, 38.725399166666669 ] ] } },

    { "type": "Feature", "properties": { "fid": 43 }, "geometry": { "type": "LineString", "coordinates": [ [ -9.354235555555555, 38.723101111111113 ], [ -9.354206388888889, 38.723120277777781 ], [ -9.354206388888889, 38.723120277777781 ], [ -9.354163055555555, 38.723138055555559 ], [ -9.354163055555555, 38.723138055555559 ], [ -9.354125277777777, 38.723148055555555 ], [ -9.354125277777777, 38.723148055555555 ], [ -9.353823888888888, 38.723220555555557 ], [ -9.353823888888888, 38.723220555555557 ], [ -9.353738055555555, 38.723241944444446 ], [ -9.353738055555555, 38.723241944444446 ], [ -9.353705, 38.723258055555554 ], [ -9.353705, 38.723258055555554 ], [ -9.353681944444444, 38.723283611111114 ], [ -9.353681944444444, 38.723283611111114 ], [ -9.353676944444445, 38.723311666666667 ], [ -9.353676944444445, 38.723311666666667 ], [ -9.353681388888889, 38.723339166666669 ], [ -9.353681388888889, 38.723339166666669 ], [ -9.353824444444443, 38.723714722222226 ], [ -9.353824444444443, 38.723714722222226 ], [ -9.353891666666666, 38.723910277777783 ], [ -9.353891666666666, 38.723910277777783 ] ] } },

    { "type": "Feature", "properties": { "fid": 44 }, "geometry": { "type": "LineString", "coordinates": [ [ -9.354425833333332, 38.723625 ], [ -9.3543975, 38.723642222222225 ], [ -9.3543975, 38.723642222222225 ], [ -9.3543675, 38.723654444444449 ], [ -9.3543675, 38.723654444444449 ], [ -9.354333333333333, 38.723666388888894 ], [ -9.354333333333333, 38.723666388888894 ] ] } },

    { "type": "Feature", "properties": { "fid": 45 }, "geometry": { "type": "LineString", "coordinates": [ ] } },

    { "type": "Feature", "properties": { "fid": 46 }, "geometry": { "type": "LineString", "coordinates": [ ] } },

    { "type": "Feature", "properties": { "fid": 47 }, "geometry": { "type": "LineString", "coordinates": [ [ -9.354251111111111, 38.723139722222221 ], [ -9.3542175, 38.7231375 ], [ -9.3542175, 38.7231375 ], [ -9.354181388888888, 38.72313888888889 ], [ -9.354181388888888, 38.72313888888889 ], [ -9.3541525, 38.72314194444445 ] ] } },

    { "type": "Feature", "properties": { "fid": 48 }, "geometry": { "type": "LineString", "coordinates": [ [ -9.354438055555555, 38.72366 ], [ -9.354398888888889, 38.723657777777781 ], [ -9.354398888888889, 38.723657777777781 ], [ -9.354363611111111, 38.723661388888893 ], [ -9.354363611111111, 38.723661388888893 ], [ -9.354334166666666, 38.723666388888894 ] ] } },

    { "type": "Feature", "properties": { "fid": 49 }, "geometry": { "type": "LineString", "coordinates": [ [ -9.354256666666666, 38.723687222222225 ], [ -9.354216111111111, 38.723688611111115 ], [ -9.354216111111111, 38.723688611111115 ], [ -9.354181944444445, 38.723680277777781 ], [ -9.354181944444445, 38.723680277777781 ], [ -9.354153888888888, 38.723663055555555 ], [ -9.354153888888888, 38.723663055555555 ], [ -9.354133333333333, 38.7236375 ] ] } },

    { "type": "Feature", "properties": { "fid": 50 }, "geometry": { "type": "LineString", "coordinates": [ [ -9.354073888888889, 38.723736388888888 ], [ -9.354096388888889, 38.72372305555556 ], [ -9.354096388888889, 38.72372305555556 ], [ -9.354118055555555, 38.723704166666671 ], [ -9.354118055555555, 38.723704166666671 ], [ -9.354131944444443, 38.723678888888891 ], [ -9.354131944444443, 38.723678888888891 ], [ -9.35413611111111, 38.723661111111113 ], [ -9.35413611111111, 38.723661111111113 ], [ -9.354134722222222, 38.723644722222225 ] ] } },

    { "type": "Feature", "properties": { "fid": 51 }, "geometry": { "type": "LineString", "coordinates": [ [ -9.353956111111112, 38.72376805555556 ], [ -9.35391861111111, 38.723774444444444 ], [ -9.35391861111111, 38.723774444444444 ], [ -9.353880555555556, 38.723769444444443 ], [ -9.353880555555556, 38.723769444444443 ], [ -9.353852777777778, 38.723753055555555 ], [ -9.353852777777778, 38.723753055555555 ], [ -9.353830555555556, 38.723727222222223 ], [ -9.353830555555556, 38.723727222222223 ], [ -9.353820833333334, 38.723706944444444 ] ] } },

    { "type": "Feature", "properties": { "fid": 52 }, "geometry": { "type": "LineString", "coordinates": [ [ -9.353881944444444, 38.723882777777781 ], [ -9.353876666666666, 38.72385361111111 ], [ -9.353876666666666, 38.72385361111111 ], [ -9.3538825, 38.723824166666667 ], [ -9.3538825, 38.723824166666667 ], [ -9.35389611111111, 38.7238025 ], [ -9.35389611111111, 38.7238025 ], [ -9.353914722222221, 38.723785833333338 ], [ -9.353914722222221, 38.723785833333338 ], [ -9.353938611111111, 38.723772777777782 ] ] } },

    { "type": "Feature", "properties": { "fid": 53 }, "geometry": { "type": "LineString", "coordinates": [ ] } },

    { "type": "Feature", "properties": { "fid": 54 }, "geometry": { "type": "LineString", "coordinates": [ ] } },

    { "type": "Feature", "properties": { "fid": 55 }, "geometry": { "type": "LineString", "coordinates": [ [ -9.354066666666666, 38.723162222222221 ], [ -9.354034722222222, 38.7231775 ], [ -9.354034722222222, 38.7231775 ], [ -9.354013333333333, 38.723194722222225 ], [ -9.354013333333333, 38.723194722222225 ], [ -9.353999722222222, 38.723219444444446 ], [ -9.353999722222222, 38.723219444444446 ], [ -9.354000833333332, 38.723254166666671 ], [ -9.354000833333332, 38.723254166666671 ], [ -9.353982222222221, 38.723231944444443 ], [ -9.353982222222221, 38.723231944444443 ], [ -9.353955, 38.723212777777782 ], [ -9.353955, 38.723212777777782 ], [ -9.35392361111111, 38.72320527777778 ], [ -9.35392361111111, 38.72320527777778 ], [ -9.3538825, 38.723206944444449 ] ] } },

    { "type": "Feature", "properties": { "fid": 56 }, "geometry": { "type": "LineString", "coordinates": [ [ -9.356802222222221, 38.726001388888889 ], [ -9.357106111111111, 38.7259325 ] ] } },

    { "type": "Feature", "properties": { "fid": 57 }, "geometry": { "type": "LineString", "coordinates": [ [ -9.356605, 38.725914166666669 ], [ -9.356612914520149, 38.725924972429844 ], [ -9.356621518999104, 38.725935237274818 ], [ -9.356630776573182, 38.725944917225199 ], [ -9.356640647578386, 38.725953970808398 ], [ -9.35665108972489, 38.725962359236284 ], [ -9.356662058273285, 38.725970046567447 ], [ -9.356673506230889, 38.725976999867264 ], [ -9.356685384550472, 38.725983189346145 ], [ -9.356697642340803, 38.725988588485045 ], [ -9.356710227084475, 38.725993174151874 ], [ -9.356723084863914, 38.725996926701548 ], [ -9.356736160591934, 38.725999830054199 ], [ -9.356749398246391, 38.726001871773398 ], [ -9.356762741113014, 38.726003043109806 ], [ -9.356776132025201, 38.72600333904483 ], [ -9.356789513612505, 38.726002758312084 ], [ -9.356802222222221, 38.726001388888889 ] ] } },

    { "type": "Feature", "properties": { "fid": 58 }, "geometry": { "type": "LineString", "coordinates": [ [ -9.354334166666666, 38.723666388888887 ], [ -9.354256666666664, 38.723687222222225 ], [ -9.354073888888889, 38.723736388888888 ], [ -9.353956111111112, 38.723768055555567 ], [ -9.353938611111111, 38.723772777777782 ] ] } },

    { "type": "Feature", "properties": { "fid": 59 }, "geometry": { "type": "LineString", "coordinates": [ [ -9.353969473924106, 38.723940330927107 ], [ -9.353772862416752, 38.723978288497037 ], [ -9.353494273908021, 38.723206653935755 ], [ -9.353672890463855, 38.723165056148574 ] ] } }
]
}
