{
"type": "FeatureCollection",
"name": "cobertura radar",
"crs": { "type": "name", "properties": { "name": "urn:ogc:def:crs:OGC:1.3:CRS84" } },
"features": [
{ "type": "Feature", "properties": { "name": "Conventional Separation Area" }, "geometry": { "type": "MultiPolygon", "coordinates": [ [ [ [ -15.0, 36.5 ], [ -13.675391944444, 36.772399722221998 ], [ -13.0, 43.0 ], [ -15.0, 42.0 ], [ -15.0, 36.5 ] ] ] ] } }
]
}
