{
"type": "FeatureCollection",
"name": "delegation SVLgeojson",
"crs": { "type": "name", "properties": { "name": "urn:ogc:def:crs:OGC:1.3:CRS84" } },
"features": [
{ "type": "Feature", "properties": { }, "geometry": { "type": "MultiPolygon", "coordinates": [ [ [ [ -7.174612121840641, 38.297857279334529 ], [ -7.176111111111111, 38.29944444444444 ], [ -7.179722222222223, 38.303333333333327 ], [ -7.286682222222222, 38.4148625 ], [ -7.332000833333333, 38.437455277777772 ], [ -7.296295277777777, 38.479394722222224 ], [ -7.322387777777777, 38.472944166666672 ], [ -7.304535, 38.52345861111111 ], [ -7.24823, 38.6211625 ], [ -7.268829444444444, 38.627599722222222 ], [ -7.263336388888889, 38.73159 ], [ -7.156219722222223, 38.77656972222222 ], [ -7.132873611111111, 38.817241388888895 ], [ -7.084722222222222, 38.82138888888889 ], [ -7.078678447568955, 38.835560498420683 ], [ -7.078611111111111, 38.835555555555558 ], [ -7.174612121840641, 38.297857279334529 ] ] ], [ [ [ -7.383333, 37.128819 ], [ -7.388700843749573, 37.127773033140713 ], [ -7.394444444444445, 37.171111111111109 ], [ -7.408905, 37.18288611111111 ], [ -7.418518333333334, 37.234702222222225 ], [ -7.437744166666667, 37.25438 ], [ -7.418518333333334, 37.27733111111111 ], [ -7.4432375, 37.3035525 ], [ -7.447357222222222, 37.347234444444446 ], [ -7.433624444444445, 37.365791666666667 ], [ -7.443333333333333, 37.4175 ], [ -7.462463611111112, 37.448696666666663 ], [ -7.46521, 37.483576666666664 ], [ -7.513275277777778, 37.53151 ], [ -7.4954225, 37.618582777777782 ], [ -7.422638055555556, 37.760944166666668 ], [ -7.312774722222222, 37.819548055555558 ], [ -7.279815833333333, 37.897614166666663 ], [ -7.253723333333333, 37.936616388888886 ], [ -7.231111111111111, 37.991944444444442 ], [ -7.229154844429167, 37.9923654132241 ], [ -7.383333, 37.128819 ] ] ] ] } }
]
}
