{
"type": "FeatureCollection",
"name": "DELLIS",
"crs": { "type": "name", "properties": { "name": "urn:ogc:def:crs:OGC:1.3:CRS84" } },
"features": [
{ "type": "Feature", "properties": { }, "geometry": { "type": "MultiPolygon", "coordinates": [ [ [ [ -8.651388888888889, 40.0125 ], [ -8.618055555555555, 39.723611111111111 ], [ -8.716388888888888, 39.601388888888891 ], [ -8.918055555555554, 39.348611111111111 ], [ -9.784722222222221, 39.348611111111111 ], [ -9.4425, 40.199722222222221 ], [ -9.360466261762536, 40.392525354097188 ], [ -8.984722222222221, 40.396111111111111 ], [ -8.696129434183524, 40.396111111111111 ], [ -8.658055555555556, 40.071111111111115 ], [ -8.651388888888889, 40.0125 ] ] ] ] } },
{ "type": "Feature", "properties": { }, "geometry": { "type": "MultiPolygon", "coordinates": [ [ [ [ -9.7847222, 39.3486111 ], [ -8.9180556, 39.3486111 ], [ -8.918055557398493, 39.348611108837162 ], [ -9.090277777777779, 39.136111111111113 ], [ -9.184444444444445, 38.960555555555558 ], [ -9.190833333333334, 38.948611111111106 ], [ -9.255277777777778, 38.827777777777783 ], [ -9.256517777777777, 38.825173888888891 ], [ -9.262981666666667, 38.81551555555555 ], [ -9.270503055555556, 38.806333333333328 ], [ -9.279024444444445, 38.797696944444439 ], [ -9.288055555555555, 38.79 ], [ -9.288481666666666, 38.789671944444443 ], [ -9.2988025, 38.782319444444447 ], [ -9.3075, 38.776666666666664 ], [ -9.309908055555557, 38.775694722222219 ], [ -9.321714166666666, 38.769848055555556 ], [ -9.334130833333333, 38.764823888888891 ], [ -9.347063611111112, 38.760660277777781 ], [ -9.360414166666667, 38.75738888888889 ], [ -9.374080833333334, 38.755034444444448 ], [ -9.387959444444444, 38.753614444444445 ], [ -9.401944444444444, 38.75314 ], [ -9.415929722222222, 38.753614444444445 ], [ -9.429808333333332, 38.755034444444448 ], [ -9.443475, 38.75738888888889 ], [ -9.4525, 38.759166666666665 ], [ -9.58888888888889, 38.794444444444444 ], [ -10.0, 38.9 ], [ -9.7847222, 39.3486111 ] ] ] ] } },
{ "type": "Feature", "properties": { }, "geometry": { "type": "MultiPolygon", "coordinates": [ [ [ [ -8.696129166666667, 40.396111111111111 ], [ -8.501388888888888, 40.396111111111111 ], [ -8.056382777777779, 40.429810833333327 ], [ -8.016666666666667, 39.666388888888889 ], [ -8.018583333333334, 39.696526388888884 ], [ -8.024003333333335, 39.728240277777779 ], [ -8.032990833333335, 39.759483611111108 ], [ -8.0454775, 39.790018333333329 ], [ -8.061368333333334, 39.819610555555556 ], [ -8.0805425, 39.848033888888892 ], [ -8.102853888888889, 39.875070555555553 ], [ -8.128132777777779, 39.9005125 ], [ -8.156187222222222, 39.924165 ], [ -8.186803055555556, 39.94584555555555 ], [ -8.219748055555556, 39.965387222222226 ], [ -8.254770833333334, 39.982639722222224 ], [ -8.291605277777778, 39.99746972222222 ], [ -8.32997111111111, 40.009763055555553 ], [ -8.369575833333334, 40.019424166666667 ], [ -8.410118611111111, 40.026378888888885 ], [ -8.451290277777778, 40.030573611111109 ], [ -8.492777777777777, 40.031975277777775 ], [ -8.534265555555555, 40.030573611111109 ], [ -8.575437222222222, 40.026378888888885 ], [ -8.61598, 40.019424166666667 ], [ -8.651388888888889, 40.0125 ], [ -8.658055555555556, 40.071111111111115 ], [ -8.696129166666667, 40.396111111111111 ] ] ] ] } },
{ "type": "Feature", "properties": { }, "geometry": { "type": "MultiPolygon", "coordinates": [ [ [ [ -8.586111111111112, 37.691947222222218 ], [ -8.862763888888889, 37.597788888888893 ], [ -8.977747222222222, 37.598347222222223 ], [ -9.2, 38.0 ], [ -9.0, 38.0 ], [ -8.793888888888889, 38.126666666666665 ], [ -8.673611111111111, 38.200277777777778 ], [ -8.586111111111112, 38.253488437676253 ], [ -8.586111111111112, 37.691947222222218 ] ] ] ] } }
]
}
