{
"type": "FeatureCollection",
"name": "ESTL",
"crs": { "type": "name", "properties": { "name": "urn:ogc:def:crs:OGC:1.3:CRS84" } },
"features": [
{ "type": "Feature", "properties": { "fid": 2, "name": "LPPC" }, "geometry": { "type": "MultiPolygon", "coordinates": [ [ [ [ -8.811035277777778, 41.913519444444447 ], [ -8.747863888888888, 41.93599833333333 ], [ -8.754730277777778, 41.965617222222228 ], [ -8.670959722222221, 41.992160277777778 ], [ -8.662719722222223, 42.020733055555553 ], [ -8.6325075, 42.049292777777779 ], [ -8.570709166666667, 42.049292777777779 ], [ -8.522644166666668, 42.061528611111108 ], [ -8.52676388888889, 42.081916666666672 ], [ -8.445739722222223, 42.082936111111117 ], [ -8.400421111111111, 42.072743055555556 ], [ -8.367462222222223, 42.089051111111111 ], [ -8.327636666666667, 42.08701277777778 ], [ -8.241119444444443, 42.125728888888887 ], [ -8.202667222222221, 42.159331666666667 ], [ -8.188934444444445, 42.139986666666665 ], [ -8.179321388888889, 42.061528611111108 ], [ -8.088684166666667, 42.064587222222222 ], [ -8.092804166666667, 42.012570833333335 ], [ -8.151855555555557, 41.987056666666668 ], [ -8.213653611111111, 41.911475555555555 ], [ -8.190307777777779, 41.874673888888893 ], [ -8.161468611111111, 41.871606111111113 ], [ -8.150555555555556, 41.819166666666668 ], [ -8.095550555555556, 41.807149166666662 ], [ -8.059722222222224, 41.813611111111108 ], [ -8.015899722222223, 41.823525277777783 ], [ -7.971954444444444, 41.871606111111113 ], [ -7.934875555555556, 41.866492777777779 ], [ -7.90329, 41.923738055555553 ], [ -7.878570833333334, 41.927825 ], [ -7.889556944444444, 41.854219444444446 ], [ -7.862091111111111, 41.85626527777778 ], [ -7.841491666666666, 41.87569638888889 ], [ -7.745361388888889, 41.890010555555556 ], [ -7.697296111111111, 41.902277222222217 ], [ -7.657470833333334, 41.877741666666665 ], [ -7.581939722222222, 41.877741666666665 ], [ -7.617645277777778, 41.822501944444447 ], [ -7.507782222222223, 41.848081666666666 ], [ -7.506408888888889, 41.8644475 ], [ -7.452222222222223, 41.8625 ], [ -7.444610833333334, 41.858310833333334 ], [ -7.441864166666667, 41.837851111111114 ], [ -7.414398333333334, 41.812267222222218 ], [ -7.364959722222222, 41.83887416666667 ], [ -7.255096388888889, 41.861379166666666 ], [ -7.196045, 41.883876388888886 ], [ -7.180938888888889, 41.926803333333332 ], [ -7.189178611111111, 41.972764444444444 ], [ -7.149353055555556, 41.986036111111112 ], [ -7.091675, 41.9758275 ], [ -7.073822222222222, 41.949277222222221 ], [ -7.007904166666667, 41.950298611111116 ], [ -6.974945277777778, 41.979911111111115 ], [ -6.944732777777778, 41.9421275 ], [ -6.82251, 41.9421275 ], [ -6.804657222222222, 41.967659166666671 ], [ -6.810150277777778, 41.993181111111113 ], [ -6.782684444444445, 41.990118888888887 ], [ -6.730499444444445, 41.93089 ], [ -6.624166666666667, 41.941111111111105 ], [ -6.586303888888889, 41.967659166666671 ], [ -6.553344722222222, 41.949277222222221 ], [ -6.580810555555555, 41.883876388888886 ], [ -6.513519444444444, 41.879786388888888 ], [ -6.550598333333333, 41.782577222222223 ], [ -6.564331111111111, 41.7016275 ], [ -6.495666666666667, 41.655471111111112 ], [ -6.345977777777778, 41.670860277777777 ], [ -6.222381666666667, 41.602093888888888 ], [ -6.201782222222223, 41.563059444444441 ], [ -6.276666666666666, 41.488333333333337 ], [ -6.28, 41.48305556 ], [ -6.428375277777779, 41.305666666666667 ], [ -6.5711975, 41.234445833333332 ], [ -6.654968333333334, 41.228249166666671 ], [ -6.773071388888889, 41.140398888888889 ], [ -6.749725277777777, 41.104191111111113 ], [ -6.815643333333333, 41.027571388888887 ], [ -6.928253333333334, 41.027571388888887 ], [ -6.807403611111111, 40.849138055555557 ], [ -6.828003055555556, 40.75662 ], [ -6.790924166666667, 40.670222777777774 ], [ -6.8486025, 40.5680675 ], [ -6.7922975, 40.540938888888888 ], [ -6.855468888888889, 40.4521725 ], [ -6.818333333333333, 40.399444444444441 ], [ -6.775818055555556, 40.357009722222223 ], [ -6.847229166666667, 40.308854444444442 ], [ -6.866455277777778, 40.2669525 ], [ -7.012023888888889, 40.231315277777782 ], [ -7.003784166666667, 40.12849111111111 ], [ -6.951599166666667, 40.11694 ], [ -6.869201666666667, 40.016046111111109 ], [ -6.904907222222223, 39.867587777777779 ], [ -6.981811666666667, 39.813810833333328 ], [ -6.985931388888889, 39.73359416666667 ], [ -7.040863055555556, 39.658570833333329 ], [ -7.160339444444444, 39.650112222222219 ], [ -7.24823, 39.665971111111112 ], [ -7.342987222222222, 39.6374225 ], [ -7.537994444444444, 39.66491388888889 ], [ -7.498168888888889, 39.598281388888893 ], [ -7.429504444444444, 39.532644166666664 ], [ -7.393798888888889, 39.530525833333336 ], [ -7.380066111111111, 39.492384166666668 ], [ -7.300415, 39.465884722222228 ], [ -7.300415, 39.41816 ], [ -7.310028333333333, 39.344918611111112 ], [ -7.231750555555555, 39.28435694444444 ], [ -7.238616944444445, 39.203526388888889 ], [ -7.135620277777778, 39.1684 ], [ -7.147979722222223, 39.115144722222226 ], [ -7.1177675, 39.097028888888893 ], [ -7.054596111111111, 39.115144722222226 ], [ -7.028333333333333, 39.108888888888892 ], [ -7.016666666666667, 39.116666666666667 ], [ -6.959838888888889, 39.059716666666667 ], [ -6.9488525, 39.02238472222222 ], [ -7.049102777777778, 38.911338888888885 ], [ -7.038116666666666, 38.880343333333336 ], [ -7.076666666666666, 38.840277777777779 ], [ -7.084722222222222, 38.82138888888889 ], [ -7.132873611111111, 38.817241388888895 ], [ -7.156219722222223, 38.77656972222222 ], [ -7.263336388888889, 38.73159 ], [ -7.268829444444444, 38.627599722222222 ], [ -7.24823, 38.6211625 ], [ -7.304535, 38.52345861111111 ], [ -7.322387777777777, 38.472944166666672 ], [ -7.296295277777777, 38.479394722222224 ], [ -7.332000833333333, 38.437455277777772 ], [ -7.286682222222222, 38.4148625 ], [ -7.179722222222223, 38.303333333333327 ], [ -7.176111111111111, 38.29944444444444 ], [ -7.171388888888889, 38.294444444444444 ], [ -7.131500277777778, 38.221998888888891 ], [ -7.082061944444444, 38.172353333333334 ], [ -6.954345833333334, 38.214446111111116 ], [ -6.928253333333334, 38.206892777777782 ], [ -6.972198611111112, 38.163715833333335 ], [ -6.9488525, 38.1529175 ], [ -6.981811666666667, 38.103224722222222 ], [ -7.003784166666667, 38.026458888888889 ], [ -7.049102777777778, 38.017804166666664 ], [ -7.08068861111111, 38.036194166666668 ], [ -7.120513888888889, 38.0351125 ], [ -7.116394166666666, 38.000491666666669 ], [ -7.209166666666667, 37.99666666666667 ], [ -7.231111111111111, 37.991944444444442 ], [ -7.253723333333333, 37.936616388888886 ], [ -7.279815833333333, 37.897614166666663 ], [ -7.312774722222222, 37.819548055555558 ], [ -7.422638055555556, 37.760944166666668 ], [ -7.4954225, 37.618582777777782 ], [ -7.513275277777778, 37.53151 ], [ -7.46521, 37.483576666666664 ], [ -7.462463611111112, 37.448696666666663 ], [ -7.443333333333333, 37.4175 ], [ -7.433624444444445, 37.365791666666667 ], [ -7.447357222222222, 37.347234444444446 ], [ -7.4432375, 37.3035525 ], [ -7.418518333333334, 37.27733111111111 ], [ -7.437744166666667, 37.25438 ], [ -7.418518333333334, 37.234702222222225 ], [ -7.408905, 37.18288611111111 ], [ -7.394444444444445, 37.171111111111109 ], [ -7.388333333333334, 37.125 ], [ -7.383333333333334, 35.966666666666669 ], [ -10.733333333333333, 35.966666666666669 ], [ -9.466666666666667, 38.0 ], [ -10.0, 38.0 ], [ -10.0, 38.9 ], [ -9.784722222222221, 39.348611111111111 ], [ -9.4425, 40.199722222222221 ], [ -9.368055555555555, 40.382222222222225 ], [ -9.251388888888888, 40.648888888888891 ], [ -9.186388888888889, 40.827777777777783 ], [ -8.8375, 41.885555555555555 ], [ -8.811035277777778, 41.913519444444447 ] ] ] ] } }
]
}
