{
"type": "FeatureCollection",
"name": "LECMZMI",
"crs": { "type": "name", "properties": { "name": "urn:ogc:def:crs:OGC:1.3:CRS84" } },
"features": [
{ "type": "Feature", "properties": { "fid": 1, "name": "LECM ZMI" }, "geometry": { "type": "MultiPolygon", "coordinates": [ [ [ [ -6.450683810980594, 41.591927902380142 ], [ -5.673, 42.371 ], [ -4.382, 42.331 ], [ -4.674, 41.369 ], [ -4.547, 41.225 ], [ -4.611111332358931, 41.174998722128763 ], [ -4.611111351470864, 40.310555248583682 ], [ -4.982777945093195, 40.24694405252167 ], [ -5.086944850549351, 39.208887724266148 ], [ -5.140547092917343, 39.031388931435792 ], [ -7.042448377493996, 39.032384143587059 ], [ -7.028333333333333, 39.108888888888892 ], [ -6.458611111111111, 39.329444444444448 ], [ -6.434722222222223, 39.524444444444441 ], [ -6.302458055555555, 40.583486111111114 ], [ -6.277777777777778, 41.3075 ], [ -6.28, 41.483055555555559 ], [ -6.450439539381548, 41.591466732920104 ], [ -6.450683810980594, 41.591927902380142 ] ] ] ] } }
]
}
