{
"type": "FeatureCollection",
"name": "LPPT Sector 11",
"crs": { "type": "name", "properties": { "name": "urn:ogc:def:crs:OGC:1.3:CRS84" } },
"features": [
{ "type": "Feature", "properties": { "id": 0, "name": "LPPT Sector 1" }, "geometry": { "type": "MultiPolygon", "coordinates": [ [ [ [ -9.443475, 38.75738888888889 ], [ -9.429808333333332, 38.755034444444448 ], [ -9.415929722222222, 38.753614444444445 ], [ -9.401944444444444, 38.75314 ], [ -9.387959444444444, 38.753614444444445 ], [ -9.374080833333334, 38.755034444444448 ], [ -9.360414166666667, 38.75738888888889 ], [ -9.347063611111112, 38.760660277777781 ], [ -9.334130833333333, 38.764823888888891 ], [ -9.321714166666666, 38.769848055555556 ], [ -9.309908055555557, 38.775694722222219 ], [ -9.3075, 38.776666666666664 ], [ -9.2988025, 38.782319444444447 ], [ -9.288481666666666, 38.789671944444443 ], [ -9.288055555555555, 38.79 ], [ -9.279024444444445, 38.797696944444439 ], [ -9.270503055555556, 38.806333333333328 ], [ -9.262981666666667, 38.81551555555555 ], [ -9.256517777777777, 38.825173888888891 ], [ -9.255277777777778, 38.827777777777783 ], [ -9.190833333333334, 38.948611111111106 ], [ -9.184444444444445, 38.960555555555558 ], [ -9.090277777777779, 39.136111111111113 ], [ -8.997394275792898, 39.250717367592458 ], [ -8.993906388888888, 39.25011416666667 ], [ -8.982973055555556, 39.248066666666666 ], [ -8.972088055555556, 39.245870833333335 ], [ -8.961255277777777, 39.243526944444447 ], [ -8.9504775, 39.241036111111114 ], [ -8.939758333333334, 39.238399166666667 ], [ -8.929101111111111, 39.235616666666665 ], [ -8.918508888888889, 39.232689444444446 ], [ -8.907985277777778, 39.229618611111114 ], [ -8.897533333333334, 39.226405277777779 ], [ -8.887156388888888, 39.223049722222221 ], [ -8.876857777777778, 39.219553888888889 ], [ -8.866640277777778, 39.215918333333335 ], [ -8.8565075, 39.212144444444448 ], [ -8.846462222222224, 39.20823305555556 ], [ -8.836508055555557, 39.204185555555561 ], [ -8.826647222222222, 39.200003333333335 ], [ -8.816883611111111, 39.1956875 ], [ -8.807219722222223, 39.191239444444442 ], [ -8.797658888888888, 39.186660555555555 ], [ -8.788203888888889, 39.1819525 ], [ -8.7788575, 39.177116388888884 ], [ -8.769622777777778, 39.172153888888886 ], [ -8.760502222222222, 39.167066388888884 ], [ -8.751499444444445, 39.161855555555555 ], [ -8.74261611111111, 39.156523055555553 ], [ -8.733855833333333, 39.151070555555556 ], [ -8.725220833333333, 39.145499722222219 ], [ -8.716713888888888, 39.139812222222218 ], [ -8.708337777777777, 39.134009722222224 ], [ -8.700094722222222, 39.128094166666671 ], [ -8.691987222222222, 39.122067222222221 ], [ -8.684018333333334, 39.115931111111109 ], [ -8.676189722222222, 39.1096875 ], [ -8.668504444444444, 39.103338333333333 ], [ -8.660964166666668, 39.096885555555559 ], [ -8.653571666666666, 39.090331111111112 ], [ -8.646329166666666, 39.083677222222228 ], [ -8.639238611111111, 39.076925555555562 ], [ -8.632302222222222, 39.070078611111114 ], [ -8.625522222222223, 39.063138333333328 ], [ -8.618900555555555, 39.056106944444444 ], [ -8.612439444444444, 39.048986388888885 ], [ -8.606140277777778, 39.041778888888885 ], [ -8.600005277777777, 39.034486944444446 ], [ -8.594036666666668, 39.027112777777774 ], [ -8.588235555555556, 39.019658333333332 ], [ -8.582604166666666, 39.012126111111108 ], [ -8.577143888888889, 39.004518611111109 ], [ -8.571856388888889, 38.996837777777777 ], [ -8.566743611111111, 38.989086111111114 ], [ -8.56180638888889, 38.981266111111111 ], [ -8.557046944444446, 38.973380277777778 ], [ -8.552466111111112, 38.965430833333336 ], [ -8.548065277777777, 38.957420277777778 ], [ -8.543846111111112, 38.949351111111106 ], [ -8.539809444444444, 38.941225555555555 ], [ -8.53595638888889, 38.93304638888889 ], [ -8.532288611111111, 38.924816111111106 ], [ -8.528806944444446, 38.916537222222217 ], [ -8.525511944444446, 38.908212222222218 ], [ -8.522405277777779, 38.899843611111109 ], [ -8.519487222222223, 38.891434166666663 ], [ -8.516758888888889, 38.882986111111109 ], [ -8.514221111111111, 38.874502222222226 ], [ -8.511874166666667, 38.865985277777781 ], [ -8.509719444444444, 38.8574375 ], [ -8.507756944444445, 38.848861944444444 ], [ -8.505987222222222, 38.84026055555556 ], [ -8.504410833333333, 38.831636944444448 ], [ -8.503028611111111, 38.822992777777785 ], [ -8.501840277777777, 38.814331388888888 ], [ -8.500846388888888, 38.805655 ], [ -8.500047222222221, 38.79696638888889 ], [ -8.499442777777777, 38.788268333333335 ], [ -8.499033333333333, 38.779563333333336 ], [ -8.498818888888888, 38.770854166666666 ], [ -8.498799722222222, 38.762143333333334 ], [ -8.498975277777777, 38.753433611111113 ], [ -8.499345555555555, 38.7447275 ], [ -8.499910833333333, 38.736027777777778 ], [ -8.500670277777777, 38.727337222222225 ], [ -8.501623611111111, 38.718658055555558 ], [ -8.502771111111111, 38.709993611111116 ], [ -8.504111388888889, 38.701345555555555 ], [ -8.505645, 38.6927175 ], [ -8.507370555555555, 38.684111388888887 ], [ -8.509288055555556, 38.675530277777774 ], [ -8.511396388888889, 38.666976388888884 ], [ -8.513695277777778, 38.658452222222223 ], [ -8.516183611111112, 38.649961111111111 ], [ -8.518860555555557, 38.641504722222223 ], [ -8.521725555555557, 38.633086388888891 ], [ -8.524777777777778, 38.624708333333331 ], [ -8.528015555555557, 38.616372777777777 ], [ -8.531438611111112, 38.608082777777781 ], [ -8.535045, 38.599840555555559 ], [ -8.538834444444444, 38.591648611111111 ], [ -8.542805277777777, 38.583509444444445 ], [ -8.546956111111111, 38.575425555555562 ], [ -8.551285833333335, 38.567399444444447 ], [ -8.555793055555556, 38.55943361111111 ], [ -8.56047638888889, 38.55153 ], [ -8.565334444444446, 38.543691388888888 ], [ -8.570365555555556, 38.535920277777777 ], [ -8.575568333333333, 38.528218611111107 ], [ -8.580940833333333, 38.520588888888888 ], [ -8.58648138888889, 38.513033333333333 ], [ -8.59218888888889, 38.505554444444442 ], [ -8.598060833333333, 38.498154444444445 ], [ -8.604095555555554, 38.490835277777776 ], [ -8.610291388888889, 38.483599444444444 ], [ -8.616646388888888, 38.476448888888889 ], [ -8.62315888888889, 38.469386111111113 ], [ -8.629826111111111, 38.462412777777779 ], [ -8.636646666666666, 38.455531388888893 ], [ -8.643618055555555, 38.448743611111105 ], [ -8.650738611111111, 38.442051944444444 ], [ -8.658005555555556, 38.43545805555555 ], [ -8.665417222222223, 38.428964166666667 ], [ -8.672970833333332, 38.422571944444442 ], [ -8.680664444444444, 38.416283611111112 ], [ -8.688495555555555, 38.410101111111111 ], [ -8.696462222222223, 38.404025555555556 ], [ -8.704561388888887, 38.398059722222222 ], [ -8.712790555555555, 38.392205 ], [ -8.721148055555556, 38.386463055555552 ], [ -8.729630277777778, 38.380835555555556 ], [ -8.738235555555555, 38.375324444444445 ], [ -8.746960833333333, 38.369931388888887 ], [ -8.75580361111111, 38.364657777777779 ], [ -8.764760833333334, 38.359505277777778 ], [ -8.773830277777778, 38.35447527777778 ], [ -8.78300888888889, 38.349569722222228 ], [ -8.792294444444444, 38.344789722222224 ], [ -8.801683611111113, 38.340136666666666 ], [ -8.811173611111112, 38.335612222222224 ], [ -8.820761388888888, 38.3312175 ], [ -8.830444722222222, 38.326953888888895 ], [ -8.840220277777778, 38.32282277777778 ], [ -8.850084722222222, 38.318825277777783 ], [ -8.860036111111111, 38.3149625 ], [ -8.870070555555555, 38.311235833333328 ], [ -8.880185277777779, 38.307646388888884 ], [ -8.8903775, 38.304194722222221 ], [ -8.90064388888889, 38.300882777777773 ], [ -8.910981388888889, 38.297710555555554 ], [ -8.921387222222222, 38.29467972222222 ], [ -8.931857777777777, 38.29179111111111 ], [ -8.942390277777777, 38.289045277777774 ], [ -8.952981388888889, 38.286443055555551 ], [ -8.963628055555555, 38.283985555555553 ], [ -8.974327222222222, 38.281673055555558 ], [ -8.985075277777778, 38.279506666666663 ], [ -8.995869444444443, 38.277486944444441 ], [ -9.006706111111111, 38.275614444444443 ], [ -9.017582222222224, 38.273889444444443 ], [ -9.028494444444446, 38.272312777777778 ], [ -9.03944, 38.27088472222222 ], [ -9.050415, 38.269606111111109 ], [ -9.06141638888889, 38.268476944444444 ], [ -9.072440833333333, 38.2674975 ], [ -9.083485277777779, 38.266668333333335 ], [ -9.094546111111113, 38.265989722222223 ], [ -9.105620277777778, 38.265461388888887 ], [ -9.116704444444444, 38.265084166666668 ], [ -9.127795, 38.264857777777777 ], [ -9.138888888888889, 38.264782222222223 ], [ -9.149982777777778, 38.264857777777777 ], [ -9.161073611111112, 38.265084166666668 ], [ -9.172157777777777, 38.265461388888887 ], [ -9.183231666666666, 38.265989722222223 ], [ -9.194292777777777, 38.266668333333335 ], [ -9.205336944444444, 38.2674975 ], [ -9.216361388888888, 38.268476944444444 ], [ -9.227362777777778, 38.269606111111109 ], [ -9.238337777777778, 38.27088472222222 ], [ -9.249283333333333, 38.272312777777778 ], [ -9.260195555555555, 38.273889444444443 ], [ -9.271071944444445, 38.275614444444443 ], [ -9.281908611111112, 38.277486944444441 ], [ -9.292702777777778, 38.279506666666663 ], [ -9.303450555555557, 38.281673055555558 ], [ -9.314149722222224, 38.283985555555553 ], [ -9.324796388888888, 38.286443055555551 ], [ -9.3353875, 38.289045277777774 ], [ -9.34592, 38.29179111111111 ], [ -9.356390555555555, 38.29467972222222 ], [ -9.36679638888889, 38.297710555555554 ], [ -9.37713388888889, 38.300882777777773 ], [ -9.387400277777777, 38.304194722222221 ], [ -9.3975925, 38.307646388888884 ], [ -9.407707222222223, 38.311235833333328 ], [ -9.409378524324808, 38.311856516766085 ], [ -9.216666666666667, 38.413611111111109 ], [ -9.220018611111112, 38.417418055555551 ], [ -9.217958611111111, 38.426294166666665 ], [ -9.194722222222222, 38.464166666666671 ], [ -9.240555555555554, 38.591388888888893 ], [ -9.244487222222221, 38.589610555555559 ], [ -9.262665277777778, 38.582247222222229 ], [ -9.28159888888889, 38.576145277777783 ], [ -9.301144166666667, 38.571350555555561 ], [ -9.321151944444445, 38.5679 ], [ -9.341470277777779, 38.565818888888884 ], [ -9.361944444444443, 38.565123611111112 ], [ -9.382418888888889, 38.565818888888884 ], [ -9.402737222222223, 38.5679 ], [ -9.422745, 38.571350555555561 ], [ -9.442290277777778, 38.576145277777783 ], [ -9.461223888888888, 38.582247222222229 ], [ -9.479401944444444, 38.589610555555559 ], [ -9.49668611111111, 38.598179722222227 ], [ -9.512944722222223, 38.607889722222225 ], [ -9.528054166666667, 38.618667222222221 ], [ -9.541899444444445, 38.630430833333335 ], [ -9.554375, 38.643091111111112 ], [ -9.565386388888889, 38.6565525 ], [ -9.574849166666667, 38.670712777777773 ], [ -9.582691666666667, 38.685464722222221 ], [ -9.588854166666668, 38.700696111111114 ], [ -9.593289722222222, 38.71629166666667 ], [ -9.595964444444444, 38.7321325 ], [ -9.596858333333333, 38.748098333333331 ], [ -9.595964444444444, 38.764067777777775 ], [ -9.593289722222222, 38.779919444444445 ], [ -9.58888888888889, 38.794444444444444 ], [ -9.4525, 38.759166666666665 ], [ -9.443475, 38.75738888888889 ] ] ] ] } }
]
}
