{
"type": "FeatureCollection",
"name": "LPWL365",
"crs": { "type": "name", "properties": { "name": "urn:ogc:def:crs:OGC:1.3:CRS84" } },
"features": [
{ "type": "Feature", "properties": { "name": "LPWL365", "top": "FL245", "bottom": "FL365", "auxiliary_storage_labeling_positionx": null, "auxiliary_storage_labeling_positiony": null }, "geometry": { "type": "MultiPolygon", "coordinates": [ [ [ [ -13.0, 43.0 ], [ -12.343888888888889, 42.790555555555557 ], [ -10.068055555555555, 42.023888888888891 ], [ -10.0, 42.0 ], [ -9.0325, 41.893055555555556 ], [ -8.926666666666666, 41.872777777777777 ], [ -8.857222222222221, 41.8725 ], [ -8.8375, 41.885555555555555 ], [ -9.186388888888889, 40.827777777777783 ], [ -9.251388888888888, 40.648888888888891 ], [ -9.368055555555555, 40.382222222222225 ], [ -9.4425, 40.199722222222221 ], [ -9.784722222222221, 39.348611111111111 ], [ -10.0, 38.9 ], [ -10.0, 38.0 ], [ -9.466666666666667, 38.0 ], [ -10.733333333333333, 35.966666666666669 ], [ -12.0, 35.966666666666669 ], [ -12.558055555555557, 36.056388888888883 ], [ -13.675277777777778, 36.7725 ], [ -15.0, 36.5 ], [ -15.0, 39.5 ], [ -15.0, 42.0 ], [ -13.0, 43.0 ] ] ] ] } }
]
}
