{
"type": "FeatureCollection",
"name": "NOREX",
"crs": { "type": "name", "properties": { "name": "urn:ogc:def:crs:OGC:1.3:CRS84" } },
"features": [
{ "type": "Feature", "properties": { "name": "NOREX", "top": "UNL", "bottom": "FL345" }, "geometry": { "type": "MultiPolygon", "coordinates": [ [ [ [ -6.434722222222223, 39.524444444444441 ], [ -6.458611111111111, 39.329444444444448 ], [ -7.028333333333333, 39.108888888888892 ], [ -7.078611111111111, 38.835555555555558 ], [ -7.176111111111111, 38.29944444444444 ], [ -7.23, 37.999444444444443 ], [ -9.0, 38.0 ], [ -9.2, 38.0 ], [ -9.45, 38.0 ], [ -9.466666666666667, 38.0 ], [ -10.0, 38.0 ], [ -10.0, 38.9 ], [ -9.784722222222221, 39.348611111111111 ], [ -9.4425, 40.199722222222221 ], [ -9.368055555555555, 40.382222222222225 ], [ -9.251388888888888, 40.648888888888891 ], [ -9.186388888888889, 40.827777777777783 ], [ -8.843611111111112, 41.8675 ], [ -8.150555555555556, 41.819166666666668 ], [ -8.081111111111111, 41.815277777777773 ], [ -8.059722222222224, 41.813611111111108 ], [ -6.621944444444445, 41.70055555555556 ], [ -6.28, 41.483055555555559 ], [ -6.277777777777778, 41.3075 ], [ -6.302458055555555, 40.583486111111114 ], [ -6.434722222222223, 39.524444444444441 ] ] ] ] } }
]
}
