{
"type": "FeatureCollection",
"name": "NORM",
"crs": { "type": "name", "properties": { "name": "urn:ogc:def:crs:OGC:1.3:CRS84" } },
"features": [
{ "type": "Feature", "properties": { "name": "NORTH", "top": "UNL", "bottom": "FL245" }, "geometry": { "type": "MultiPolygon", "coordinates": [ [ [ [ -8.843611111111112, 41.8675 ], [ -8.150555555555556, 41.819166666666668 ], [ -8.150555555555556, 41.819166666666668 ], [ -8.081111111111111, 41.815277777777773 ], [ -8.081111111111111, 41.815277777777773 ], [ -8.059722222222224, 41.813611111111108 ], [ -8.059722222222224, 41.813611111111108 ], [ -6.621944444444445, 41.70055555555556 ], [ -6.621944444444445, 41.70055555555556 ], [ -6.28, 41.483055555555559 ], [ -6.28, 41.483055555555559 ], [ -6.277777777777778, 41.3075 ], [ -6.277777777777778, 41.3075 ], [ -6.302458055555555, 40.583486111111114 ], [ -6.302458055555555, 40.583486111111114 ], [ -6.818333333333333, 40.399444444444441 ], [ -6.818333333333333, 40.399444444444441 ], [ -8.016666666666667, 39.383333333333333 ], [ -8.016666666666667, 39.383333333333333 ], [ -10.0, 38.9 ], [ -10.0, 38.9 ], [ -9.784722222222221, 39.348611111111111 ], [ -9.784722222222221, 39.348611111111111 ], [ -9.4425, 40.199722222222221 ], [ -9.4425, 40.199722222222221 ], [ -9.368055555555555, 40.382222222222225 ], [ -9.368055555555555, 40.382222222222225 ], [ -9.251388888888888, 40.648888888888891 ], [ -9.251388888888888, 40.648888888888891 ], [ -9.186388888888889, 40.827777777777783 ], [ -9.186388888888889, 40.827777777777783 ], [ -8.843611111111112, 41.8675 ] ] ] ] } }
]
}
