{
"type": "FeatureCollection",
"name": "r51bsd",
"crs": { "type": "name", "properties": { "name": "urn:ogc:def:crs:OGC:1.3:CRS84" } },
"features": [
{ "type": "Feature", "properties": { }, "geometry": { "type": "MultiPolygon", "coordinates": [ [ [ [ -7.4981380555556, 37.596591944444 ], [ -7.5007783333333, 37.570190555556003 ], [ -7.5078191666667, 37.559921388889002 ], [ -7.5201402777778, 37.554348055555998 ], [ -7.5219002777778, 37.552589444444003 ], [ -7.5169130555556, 37.532055 ], [ -7.5116330555556, 37.525013055556002 ], [ -7.4919780555556, 37.517093611111001 ], [ -7.4872841666667, 37.513572777778002 ], [ -7.4682158333333, 37.489223611111001 ], [ -7.4652830555556, 37.483062777778002 ], [ -7.4570688888889, 37.443752222222003 ], [ -7.4433333333333, 37.4175 ], [ -7.8844444444444, 37.415277777778002 ], [ -7.9586111111111, 37.5975 ], [ -7.4981380555556, 37.596591944444 ] ] ] ] } }
]
}
