{
"type": "FeatureCollection",
"name": "R60BU rerouted",
"crs": { "type": "name", "properties": { "name": "urn:ogc:def:crs:OGC:1.3:CRS84" } },
"features": [
{ "type": "Feature", "properties": { "name": "PINEK-BAROK", "cmt": null, "desc": null, "src": null, "link1_href": null, "link1_text": null, "link1_type": null, "link2_href": null, "link2_text": null, "link2_type": null, "number": null, "type": null }, "geometry": { "type": "LineString", "coordinates": [ [ -8.597778, 41.851111 ], [ -8.536111, 40.031111 ], [ -10.023333, 35.966667 ] ] } }
]
}
