{
"type": "FeatureCollection",
"name": "RVSM Transition Area",
"crs": { "type": "name", "properties": { "name": "urn:ogc:def:crs:OGC:1.3:CRS84" } },
"features": [
{ "type": "Feature", "properties": { "fid": 1, "name": "LPPC", "auxiliary_storage_labeling_show": null, "auxiliary_storage_labeling_labelrotation": null, "auxiliary_storage_labeling_family": null, "auxiliary_storage_labeling_fontstyle": null, "auxiliary_storage_labeling_size": null, "auxiliary_storage_labeling_bold": null, "auxiliary_storage_labeling_italic": null, "auxiliary_storage_labeling_underline": null, "auxiliary_storage_labeling_color": null, "auxiliary_storage_labeling_strikeout": null, "auxiliary_storage_labeling_multilinealignment": null, "auxiliary_storage_labeling_buffersize": null, "auxiliary_storage_labeling_buffercolor": null, "auxiliary_storage_labeling_bufferdraw": null, "auxiliary_storage_labeling_labeldistance": null, "auxiliary_storage_labeling_hali": null, "auxiliary_storage_labeling_vali": null, "auxiliary_storage_labeling_scalevisibility": null, "auxiliary_storage_labeling_minscale": null, "auxiliary_storage_labeling_maxscale": null, "auxiliary_storage_labeling_alwaysshow": null, "auxiliary_storage_labeling_calloutdraw": null, "auxiliary_storage_labeling_labelallparts": null }, "geometry": { "type": "MultiPolygon", "coordinates": [ [ [ [ -11.766666666666667, 39.466666666666669 ], [ -16.466666666666665, 33.25 ], [ -16.350639, 33.090417 ], [ -16.350555555555555, 33.090277777777779 ], [ -17.033092310150785, 31.500561374174168 ], [ -17.038373333333336, 31.501725833333332 ], [ -17.352431944444447, 31.622380833333334 ], [ -17.636238333333331, 31.786383888888892 ], [ -17.881174722222223, 31.988969166666667 ], [ -18.079816944444445, 32.224216388888891 ], [ -18.226152777777777, 32.485204722222221 ], [ -18.315759722222221, 32.7641975 ], [ -18.345932222222221, 33.052851666666662 ], [ -18.315759722222221, 33.342455277777781 ], [ -18.226152777777777, 33.624181944444445 ], [ -18.079816944444445, 33.889360277777776 ], [ -17.881174722222223, 34.129748611111111 ], [ -17.766666666666666, 34.25 ], [ -15.0, 36.5 ], [ -15.0, 39.5 ], [ -15.0, 42.0 ], [ -13.0, 43.0 ], [ -12.343888888888889, 42.790555833333329 ], [ -10.068055833333332, 42.023888888888891 ], [ -10.0, 42.0 ], [ -11.766666666666667, 39.466666666666669 ] ] ] ] } }
]
}
