{
"type": "FeatureCollection",
"name": "SULL",
"crs": { "type": "name", "properties": { "name": "urn:ogc:def:crs:OGC:1.3:CRS84" } },
"features": [
{ "type": "Feature", "properties": { "name": "SOUTH", "top": "FL245", "bottom": "SFC" }, "geometry": { "type": "MultiPolygon", "coordinates": [ [ [ [ -7.386388888888889, 36.671111111111109 ], [ -7.383333333333334, 35.966666666666669 ], [ -10.733333333333333, 35.966666666666669 ], [ -9.466666666666667, 38.0 ], [ -9.45, 38.0 ], [ -9.2, 38.0 ], [ -9.0, 38.0 ], [ -7.23, 37.999444444444443 ], [ -7.158163882020654, 37.99877882126588 ], [ -7.209166666666667, 37.99666666666667 ], [ -7.231111111111111, 37.991944444444442 ], [ -7.253723333333333, 37.936616388888886 ], [ -7.279815833333333, 37.897614166666663 ], [ -7.312774722222222, 37.819548055555558 ], [ -7.422638055555556, 37.760944166666668 ], [ -7.4954225, 37.618582777777782 ], [ -7.513275277777778, 37.53151 ], [ -7.46521, 37.483576666666664 ], [ -7.462463611111112, 37.448696666666663 ], [ -7.443333333333333, 37.4175 ], [ -7.433624444444445, 37.365791666666667 ], [ -7.447357222222222, 37.347234444444446 ], [ -7.4432375, 37.3035525 ], [ -7.418518333333334, 37.27733111111111 ], [ -7.437744166666667, 37.25438 ], [ -7.418518333333334, 37.234702222222225 ], [ -7.408905, 37.18288611111111 ], [ -7.394444444444445, 37.171111111111109 ], [ -7.388333333333334, 37.125 ], [ -7.386379907205139, 36.672456280301681 ], [ -7.386388888888889, 36.671111111111109 ] ] ] ] } }
]
}
