{
"type": "FeatureCollection",
"name": "DEMOS LOWER",
"crs": { "type": "name", "properties": { "name": "urn:ogc:def:crs:OGC:1.3:CRS84" } },
"features": [
{ "type": "Feature", "properties": { "name": "VERAM", "top": "UNL", "bottom": "SFC" }, "geometry": { "type": "MultiPolygon", "coordinates": [ [ [ [ -10.0, 38.9 ], [ -10.0, 38.0 ], [ -9.466666666666667, 38.0 ], [ -10.733333333333333, 35.966666666666669 ], [ -12.0, 35.966666666666669 ], [ -12.558055555555557, 36.056388888888883 ], [ -13.675277777777778, 36.7725 ], [ -15.0, 36.5 ], [ -15.0, 39.5 ], [ -11.595555555555556, 39.3725 ], [ -10.216666666666667, 39.0 ], [ -10.0, 38.9 ] ] ] ] } }
]
}
